Introduction to `simulatr` • simulatr
…
4. Run the simulation

Since this example simulation is small, we can run it in RStudio:

sim_results <- check_simulatr_specifier_object(simulatr_spec)
#> Generating data...
#> Running method 'ols'...
#> Running method 'lasso'...
#> 
#> SUMMARY: The simulatr specifier object is specified correctly!

Let’s take a look at the results:

sim_results$results
#> # A tibble: 1,200 × 6
#>    parameter target     value run_id grid_id method
#>  * <chr>     <chr>      <dbl>  <int>   <int> <chr> 
#>  1 X1        estimate  2.47        1       1 ols   
#>  2 X2        estimate  2.99        1       1 ols   
#>  3 X3        estimate  3.06        1       1 ols   
#>  4 X4        estimate  2.93        1       1 ols   
#>  5 X5        estimate  1.87        1       1 ols   
#>  6 X6        estimate  0.619       1       1 ols   
#>  7 X7        estimate -0.485       1       1 ols   
#>  8 X8        estimate  0.0763      1       1 ols   
#>  9 X9        estimate -0.309       1       1 ols   
#> 10 X10       estimate  0.273       1       1 ols   
#> # … with 1,190 more rows
…
